
{
    "region name":"Andorra",
    "flag path":"file:./export/The World/Europe/Andorra Flag.png",
    "background color":"-fx-background-color:#dc6e01",
    "border color":"-fx-background-color:black",
    "seal path":"file:./export/The World/Europe/Andorra/Andorra Seal.png",
    "json coordinates":"./raw_map_data/Andorra.json"
}